<?xml version="1.0" encoding="UTF-8" standalone="no"?>
<!-- Created with Inkscape (http://www.inkscape.org/) -->

<svg
   xmlns:dc="http://purl.org/dc/elements/1.1/"
   xmlns:cc="http://creativecommons.org/ns#"
   xmlns:rdf="http://www.w3.org/1999/02/22-rdf-syntax-ns#"
   xmlns:svg="http://www.w3.org/2000/svg"
   xmlns="http://www.w3.org/2000/svg"
   xmlns:sodipodi="http://sodipodi.sourceforge.net/DTD/sodipodi-0.dtd"
   xmlns:inkscape="http://www.inkscape.org/namespaces/inkscape"
   width="8.3939133mm"
   height="4.7294483mm"
   viewBox="0 0 29.742214 16.757888"
   id="svg2"
   version="1.1"
   inkscape:version="0.92.3 (2405546, 2018-03-11)"
   sodipodi:docname="doigt-verni-next.svg">
  <defs
     id="defs4">
    <inkscape:path-effect
       effect="spiro"
       id="path-effect3408"
       is_visible="true" />
    <inkscape:path-effect
       is_visible="true"
       id="path-effect3396"
       effect="spiro" />
    <inkscape:path-effect
       effect="spiro"
       id="path-effect3462"
       is_visible="true" />
    <inkscape:path-effect
       is_visible="true"
       id="path-effect4320"
       effect="spiro" />
    <inkscape:path-effect
       effect="spiro"
       id="path-effect4316"
       is_visible="true" />
    <inkscape:path-effect
       is_visible="true"
       id="path-effect4312"
       effect="spiro" />
    <inkscape:path-effect
       effect="spiro"
       id="path-effect4308"
       is_visible="true" />
    <inkscape:path-effect
       is_visible="true"
       id="path-effect4304"
       effect="spiro" />
    <inkscape:path-effect
       effect="spiro"
       id="path-effect4300"
       is_visible="true" />
    <inkscape:path-effect
       effect="spiro"
       id="path-effect4296"
       is_visible="true" />
    <inkscape:path-effect
       is_visible="true"
       id="path-effect4254"
       effect="spiro" />
    <inkscape:path-effect
       is_visible="true"
       id="path-effect4250"
       effect="spiro" />
    <inkscape:path-effect
       effect="spiro"
       id="path-effect4246"
       is_visible="true" />
    <inkscape:path-effect
       effect="spiro"
       id="path-effect4242"
       is_visible="true" />
    <inkscape:path-effect
       is_visible="true"
       id="path-effect4238"
       effect="spiro" />
    <inkscape:path-effect
       effect="spiro"
       id="path-effect4224"
       is_visible="true" />
    <inkscape:path-effect
       effect="spiro"
       id="path-effect4220"
       is_visible="true" />
    <inkscape:path-effect
       is_visible="true"
       id="path-effect4216"
       effect="spiro" />
    <inkscape:path-effect
       effect="spiro"
       id="path-effect4202"
       is_visible="true" />
    <inkscape:path-effect
       effect="spiro"
       id="path-effect4198"
       is_visible="true" />
    <inkscape:path-effect
       is_visible="true"
       id="path-effect4194"
       effect="spiro" />
    <inkscape:path-effect
       effect="spiro"
       id="path-effect4190"
       is_visible="true" />
    <inkscape:path-effect
       effect="spiro"
       id="path-effect4186"
       is_visible="true" />
    <inkscape:path-effect
       is_visible="true"
       id="path-effect4182"
       effect="spiro" />
    <inkscape:path-effect
       is_visible="true"
       id="path-effect4178"
       effect="spiro" />
    <inkscape:path-effect
       is_visible="true"
       id="path-effect4174"
       effect="spiro" />
    <inkscape:path-effect
       effect="spiro"
       id="path-effect4170"
       is_visible="true" />
    <inkscape:path-effect
       is_visible="true"
       id="path-effect4166"
       effect="spiro" />
    <inkscape:path-effect
       is_visible="true"
       id="path-effect3346"
       effect="spiro" />
    <inkscape:path-effect
       effect="spiro"
       id="path-effect3342"
       is_visible="true" />
    <inkscape:path-effect
       effect="spiro"
       id="path-effect3338"
       is_visible="true" />
  </defs>
  <sodipodi:namedview
     id="base"
     pagecolor="#ffffff"
     bordercolor="#666666"
     borderopacity="1.0"
     inkscape:pageopacity="0.0"
     inkscape:pageshadow="2"
     inkscape:zoom="10.24"
     inkscape:cx="-13.394812"
     inkscape:cy="5.0559701"
     inkscape:document-units="px"
     inkscape:current-layer="g881"
     showgrid="false"
     inkscape:window-width="1920"
     inkscape:window-height="1007"
     inkscape:window-x="0"
     inkscape:window-y="34"
     inkscape:window-maximized="1"
     fit-margin-top="0"
     fit-margin-left="0"
     fit-margin-right="0"
     fit-margin-bottom="0" />
  <metadata
     id="metadata7">
    <rdf:RDF>
      <cc:Work
         rdf:about="">
        <dc:format>image/svg+xml</dc:format>
        <dc:type
           rdf:resource="http://purl.org/dc/dcmitype/StillImage" />
        <dc:title></dc:title>
      </cc:Work>
    </rdf:RDF>
  </metadata>
  <g
     inkscape:label="Layer 1"
     inkscape:groupmode="layer"
     id="layer1"
     transform="translate(-57.498141,-142.35015)">
    <path
       style="opacity:1;fill:none;fill-opacity:1;stroke:#000000;stroke-width:1.39999998;stroke-linecap:butt;stroke-linejoin:miter;stroke-miterlimit:4;stroke-dasharray:none;stroke-dashoffset:0;stroke-opacity:1"
       d="m 260.10476,121.5092 h 10.12801"
       id="path3336"
       inkscape:path-effect="#path-effect3338"
       inkscape:original-d="m 260.10476,121.5092 c -7.67213,0 7.64621,0 10.12801,0"
       inkscape:connector-curvature="0"
       sodipodi:nodetypes="cc"
       inkscape:export-xdpi="58.369999"
       inkscape:export-ydpi="58.369999" />
    <path
       inkscape:connector-curvature="0"
       inkscape:original-d="m 264.4764,126.89537 5.70484,-5.38617 -5.70484,-5.38618"
       inkscape:path-effect="#path-effect3346"
       id="path3344"
       d="m 264.4764,126.89537 5.70484,-5.38617 -5.70484,-5.38618"
       style="opacity:1;fill:none;fill-opacity:1;stroke:#000000;stroke-width:1.39999998;stroke-linecap:butt;stroke-linejoin:miter;stroke-miterlimit:4;stroke-dasharray:none;stroke-dashoffset:0;stroke-opacity:1"
       sodipodi:nodetypes="ccc"
       inkscape:export-xdpi="58.369999"
       inkscape:export-ydpi="58.369999" />
    <flowRoot
       xml:space="preserve"
       id="flowRoot3348"
       style="font-style:normal;font-variant:normal;font-weight:500;font-stretch:normal;line-height:0.01%;font-family:'Gotham HTF';-inkscape-font-specification:'Gotham HTF Medium';letter-spacing:0px;word-spacing:0px;fill:#000000;fill-opacity:1;stroke:none;stroke-width:1px;stroke-linecap:butt;stroke-linejoin:miter;stroke-opacity:1"><flowRegion
         id="flowRegion3350"><rect
           id="rect3352"
           width="249.00261"
           height="137.88582"
           x="279.81226"
           y="107.86958" /></flowRegion><flowPara
         id="flowPara3354"
         style="font-style:normal;font-variant:normal;font-weight:300;font-stretch:normal;font-size:20px;line-height:1.25;font-family:Junction;-inkscape-font-specification:'Junction Light'">voir</flowPara></flowRoot>    <path
       sodipodi:nodetypes="cc"
       inkscape:connector-curvature="0"
       inkscape:original-d="m 248.07097,121.5092 h 7.98515"
       inkscape:path-effect="#path-effect4178"
       id="path4176"
       d="m 248.07097,121.5092 h 7.98515"
       style="opacity:1;fill:none;fill-opacity:1;stroke:#000000;stroke-width:1.39999998;stroke-linecap:butt;stroke-linejoin:miter;stroke-miterlimit:4;stroke-dasharray:none;stroke-dashoffset:0;stroke-opacity:1"
       inkscape:export-xdpi="58.369999"
       inkscape:export-ydpi="58.369999" />
    <path
       sodipodi:nodetypes="cc"
       inkscape:connector-curvature="0"
       inkscape:original-d="m 260.10476,75.576487 c -7.67213,0 7.64621,0 10.12801,0"
       inkscape:path-effect="#path-effect4194"
       id="path4192"
       d="m 260.10476,75.576487 h 10.12801"
       style="opacity:1;fill:none;fill-opacity:1;stroke:#000000;stroke-width:1.20000005;stroke-linecap:butt;stroke-linejoin:miter;stroke-miterlimit:4;stroke-dasharray:none;stroke-dashoffset:0;stroke-opacity:1" />
    <path
       style="opacity:1;fill:none;fill-opacity:1;stroke:#000000;stroke-width:1.20000005;stroke-linecap:butt;stroke-linejoin:miter;stroke-miterlimit:4;stroke-dasharray:none;stroke-dashoffset:0;stroke-opacity:1"
       d="m 248.07097,75.576487 h 7.98515"
       id="path4200"
       inkscape:path-effect="#path-effect4202"
       inkscape:original-d="m 248.07097,75.576487 h 7.98515"
       inkscape:connector-curvature="0"
       sodipodi:nodetypes="cc" />
    <path
       sodipodi:type="star"
       style="opacity:1;fill:#000000;fill-opacity:1;stroke:#000000;stroke-width:1.66354847;stroke-linecap:butt;stroke-linejoin:miter;stroke-miterlimit:4;stroke-dasharray:none;stroke-dashoffset:0;stroke-opacity:1"
       id="path4204"
       sodipodi:sides="3"
       sodipodi:cx="268.03571"
       sodipodi:cy="99.505058"
       sodipodi:r1="3.9326279"
       sodipodi:r2="1.966314"
       sodipodi:arg1="0"
       sodipodi:arg2="1.0471976"
       inkscape:flatsided="false"
       inkscape:rounded="0"
       inkscape:randomized="0"
       d="m 271.96833,99.505058 -2.94947,1.702882 -2.94947,1.70287 v -3.405752 -3.405755 l 2.94947,1.702877 z"
       inkscape:transform-center-x="-0.70320511"
       transform="matrix(0.71525087,0,0,0.72750035,77.509062,3.1865225)" />
    <flowRoot
       style="font-style:normal;font-variant:normal;font-weight:500;font-stretch:normal;line-height:0.01%;font-family:'Gotham HTF';-inkscape-font-specification:'Gotham HTF Medium';letter-spacing:0px;word-spacing:0px;fill:#000000;fill-opacity:1;stroke:none;stroke-width:1px;stroke-linecap:butt;stroke-linejoin:miter;stroke-opacity:1"
       id="flowRoot4206"
       xml:space="preserve"
       transform="translate(0,-45.714286)"><flowRegion
         id="flowRegion4208"><rect
           y="107.86958"
           x="279.81226"
           height="137.88582"
           width="249.00261"
           id="rect4210" /></flowRegion><flowPara
         style="font-style:normal;font-variant:normal;font-weight:300;font-stretch:normal;font-size:20px;line-height:1.25;font-family:Junction;-inkscape-font-specification:'Junction Light'"
         id="flowPara4212">voir</flowPara></flowRoot>    <g
       id="g4226"
       transform="rotate(-90,222.74235,121.5092)">
      <path
         style="opacity:1;fill:none;fill-opacity:1;stroke:#000000;stroke-width:1.39999998;stroke-linecap:butt;stroke-linejoin:miter;stroke-miterlimit:4;stroke-dasharray:none;stroke-dashoffset:0;stroke-opacity:1"
         d="m 217.67835,121.5092 h 10.12801"
         id="path4214"
         inkscape:path-effect="#path-effect4216"
         inkscape:original-d="m 217.67835,121.5092 c -7.67213,0 7.64621,0 10.12801,0"
         inkscape:connector-curvature="0"
         sodipodi:nodetypes="cc" />
      <path
         inkscape:connector-curvature="0"
         inkscape:original-d="m 222.04999,126.89537 5.70484,-5.38617 -5.70484,-5.38618"
         inkscape:path-effect="#path-effect4220"
         id="path4218"
         d="m 222.04999,126.89537 5.70484,-5.38617 -5.70484,-5.38618"
         style="opacity:1;fill:none;fill-opacity:1;stroke:#000000;stroke-width:1.39999998;stroke-linecap:butt;stroke-linejoin:miter;stroke-miterlimit:4;stroke-dasharray:none;stroke-dashoffset:0;stroke-opacity:1"
         sodipodi:nodetypes="ccc" />
    </g>
    <g
       transform="matrix(0,1,1,0,76.23316,-102.20128)"
       id="g4230">
      <path
         sodipodi:nodetypes="cc"
         inkscape:connector-curvature="0"
         inkscape:original-d="m 217.67835,121.5092 c -7.67213,0 7.64621,0 10.12801,0"
         inkscape:path-effect="#path-effect4216"
         id="path4232"
         d="m 217.67835,121.5092 h 10.12801"
         style="opacity:1;fill:none;fill-opacity:1;stroke:#000000;stroke-width:1.39999998;stroke-linecap:butt;stroke-linejoin:miter;stroke-miterlimit:4;stroke-dasharray:none;stroke-dashoffset:0;stroke-opacity:1" />
      <path
         sodipodi:nodetypes="ccc"
         style="opacity:1;fill:none;fill-opacity:1;stroke:#000000;stroke-width:1.39999998;stroke-linecap:butt;stroke-linejoin:miter;stroke-miterlimit:4;stroke-dasharray:none;stroke-dashoffset:0;stroke-opacity:1"
         d="m 222.04999,126.89537 5.70484,-5.38617 -5.70484,-5.38618"
         id="path4234"
         inkscape:path-effect="#path-effect4220"
         inkscape:original-d="m 222.04999,126.89537 5.70484,-5.38617 -5.70484,-5.38618"
         inkscape:connector-curvature="0" />
    </g>
    <path
       sodipodi:nodetypes="ccc"
       style="opacity:1;fill:none;fill-opacity:1;stroke:#000000;stroke-width:1.39999998;stroke-linecap:butt;stroke-linejoin:miter;stroke-miterlimit:4;stroke-dasharray:none;stroke-dashoffset:0;stroke-opacity:1"
       d="m 166.9764,126.89537 5.70484,-5.38617 -5.70484,-5.38618"
       id="path4240"
       inkscape:path-effect="#path-effect4242"
       inkscape:original-d="m 166.9764,126.89537 5.70484,-5.38617 -5.70484,-5.38618"
       inkscape:connector-curvature="0" />
    <path
       style="opacity:1;fill:none;fill-opacity:1;stroke:#000000;stroke-width:1.39999998;stroke-linecap:butt;stroke-linejoin:miter;stroke-miterlimit:4;stroke-dasharray:none;stroke-dashoffset:0;stroke-opacity:1"
       d="m 150.57097,121.5092 h 7.98515 4.04864 10.12801"
       id="path4244"
       inkscape:path-effect="#path-effect4246"
       inkscape:original-d="m 150.57097,121.5092 h 7.98515 4.04864 10.12801"
       inkscape:connector-curvature="0"
       sodipodi:nodetypes="cccc" />
    <path
       inkscape:connector-curvature="0"
       inkscape:original-d="m 132.50494,126.89537 5.70484,-5.38617 -5.70484,-5.38618"
       inkscape:path-effect="#path-effect4250"
       id="path4248"
       d="m 132.50494,126.89537 5.70484,-5.38617 -5.70484,-5.38618"
       style="opacity:1;fill:none;fill-opacity:1;stroke:#000000;stroke-width:1.39999998;stroke-linecap:butt;stroke-linejoin:miter;stroke-miterlimit:4;stroke-dasharray:none;stroke-dashoffset:0;stroke-opacity:1"
       sodipodi:nodetypes="ccc" />
    <path
       sodipodi:nodetypes="cczscc"
       inkscape:connector-curvature="0"
       inkscape:original-d="m 113.19532,121.5092 h 2.80634 c 3.71601,0.19238 4.96,1.78207 6.33427,1.76777 1.37427,-0.0143 3.75342,-3.28107 5.16603,-3.27665 1.30558,0.004 3.41657,1.46119 5.3331,1.50888 h 5.42625"
       inkscape:path-effect="#path-effect4254"
       id="path4252"
       d="m 113.19532,121.5092 h 2.80634 c 0.5563,0 1.11561,0.0121 1.66204,0.11648 0.54642,0.10437 1.07313,0.29739 1.57433,0.53878 0.50121,0.2414 0.97957,0.52892 1.48592,0.75933 0.50634,0.23042 1.05786,0.4024 1.61198,0.35318 0.52153,-0.0463 1.01009,-0.28817 1.42783,-0.60381 0.41775,-0.31564 0.77361,-0.70433 1.1306,-1.08734 0.357,-0.383 0.72092,-0.76547 1.15036,-1.065 0.42945,-0.29953 0.9337,-0.51393 1.45724,-0.5205 0.46813,-0.006 0.92351,0.15215 1.34799,0.34962 0.42449,0.19746 0.82989,0.43407 1.25468,0.63088 0.42479,0.19681 0.8705,0.3518 1.33115,0.43537 0.46064,0.0836 0.93111,0.093 1.39928,0.093 h 5.42625"
       style="opacity:1;fill:none;fill-opacity:1;stroke:#000000;stroke-width:1.39999998;stroke-linecap:butt;stroke-linejoin:miter;stroke-miterlimit:4;stroke-dasharray:none;stroke-dashoffset:0;stroke-opacity:1" />
    <g
       id="g4324">
      <path
         style="opacity:1;fill:none;fill-opacity:1;stroke:#000000;stroke-width:1.39999998;stroke-linecap:round;stroke-linejoin:round;stroke-miterlimit:4;stroke-dasharray:none;stroke-dashoffset:0;stroke-opacity:1"
         d="m 174.79375,153.57895 c 0.22983,-0.0922 0.42991,-0.25701 0.5645,-0.46489 0.13458,-0.20788 0.20303,-0.45789 0.19312,-0.70533 -0.01,-0.24566 -0.0968,-0.48766 -0.24568,-0.68335 -0.14882,-0.19569 -0.3588,-0.34417 -0.5929,-0.41927 h -14.16592 c -1.51294,0.11115 -2.99901,0.57311 -4.30833,1.33929 -0.45214,0.26458 -0.89036,0.55933 -1.37674,0.75394 -0.48637,0.19462 -1.01147,0.2681 -1.53379,0.30828 l -2.14981,0.16537 -1.13319,0.62288 0.1447,5.15932 1.25002,0.71429 h 2.42019 c 0.68886,0 1.38544,0.065 2.02906,0.31057 0.64362,0.24553 1.22738,0.63562 1.88236,0.849 0.83278,0.2713 1.73062,0.22931 2.60611,0.2038 l 5.98743,-0.17447 c 0.48219,-0.0752 0.92109,-0.38955 1.14739,-0.82192 0.13452,-0.25702 0.19571,-0.55192 0.17454,-0.84124 -0.0212,-0.28932 -0.12462,-0.57217 -0.29512,-0.80688 0.32808,-0.10525 0.61668,-0.32916 0.80017,-0.62079 0.18348,-0.29163 0.26041,-0.64872 0.2133,-0.99003 -0.0624,-0.45205 -0.34693,-0.86803 -0.74561,-1.09007 0.30868,-0.10984 0.57834,-0.32617 0.7525,-0.6037 0.17415,-0.27752 0.25167,-0.61443 0.21632,-0.94016 -0.0298,-0.27443 -0.13878,-0.53981 -0.31049,-0.75594 -0.17171,-0.21614 -0.40556,-0.38233 -0.66615,-0.4734 z"
         id="path4318"
         inkscape:path-effect="#path-effect4320"
         inkscape:original-d="m 174.79375,153.57895 c 0,0 0.78372,-0.49215 0.75762,-1.17022 -0.0261,-0.67808 -0.83858,-1.10262 -0.83858,-1.10262 h -14.16592 c 0,0 -3.08081,0.44409 -4.30833,1.33929 -1.22752,0.89519 -2.91053,1.06222 -2.91053,1.06222 l -2.14981,0.16537 -1.13319,0.62288 0.1447,5.15932 1.25002,0.71429 h 2.42019 c 0.92481,0 3.12208,0.94889 3.91142,1.15957 0.78934,0.2108 2.60611,0.2038 2.60611,0.2038 l 5.98743,-0.17447 c 0,0 1.01153,-0.43453 1.14739,-0.82192 0.13586,-0.38739 -0.12058,-1.64812 -0.12058,-1.64812 0,0 1.00487,-2.32481 1.01347,-1.61082 0.008,0.69272 -0.79091,-1.05193 -0.74561,-1.09007 0,0 0.96022,-2.25785 0.96882,-1.54386 0.008,0.69272 -1.01412,-1.18586 -0.97664,-1.22934 z"
         inkscape:connector-curvature="0"
         sodipodi:nodetypes="czcczcccccszcczcscscc" />
      <rect
         rx="0.50507629"
         ry="0.50507629"
         y="151.88966"
         x="173.08913"
         height="1.1688126"
         width="1.8116598"
         id="rect4322"
         style="opacity:1;fill:#ff0000;fill-opacity:1;stroke:none;stroke-width:1.39999998;stroke-linecap:round;stroke-linejoin:round;stroke-miterlimit:4;stroke-dasharray:none;stroke-dashoffset:0;stroke-opacity:1" />
    </g>
    <path
       style="opacity:1;fill:none;fill-opacity:1;stroke:#000000;stroke-width:1.20000005;stroke-linecap:round;stroke-linejoin:round;stroke-miterlimit:4;stroke-dasharray:none;stroke-dashoffset:0;stroke-opacity:1"
       d="m 212.29375,153.57895 c 0.22983,-0.0922 0.42991,-0.25701 0.5645,-0.46489 0.13458,-0.20788 0.20303,-0.45789 0.19312,-0.70533 -0.01,-0.24566 -0.0968,-0.48766 -0.24568,-0.68335 -0.14882,-0.19569 -0.3588,-0.34417 -0.5929,-0.41927 h -14.16592 c -1.51294,0.11115 -2.99901,0.57311 -4.30833,1.33929 -0.45214,0.26458 -0.89036,0.55933 -1.37674,0.75394 -0.48637,0.19462 -1.01147,0.2681 -1.53379,0.30828 l -2.14981,0.16537 -1.13319,0.62288 0.1447,5.15932 1.25002,0.71429 h 2.42019 c 0.68886,0 1.38544,0.065 2.02906,0.31057 0.64362,0.24553 1.22738,0.63562 1.88236,0.849 0.83278,0.2713 1.73062,0.22931 2.60611,0.2038 l 5.98743,-0.17447 c 0.48219,-0.0752 0.92109,-0.38955 1.14739,-0.82192 0.13452,-0.25702 0.19571,-0.55192 0.17454,-0.84124 -0.0212,-0.28932 -0.12462,-0.57217 -0.29512,-0.80688 0.32808,-0.10525 0.61668,-0.32916 0.80017,-0.62079 0.18348,-0.29163 0.26041,-0.64872 0.2133,-0.99003 -0.0624,-0.45205 -0.34693,-0.86803 -0.74561,-1.09007 0.30868,-0.10984 0.57834,-0.32617 0.7525,-0.6037 0.17415,-0.27752 0.25167,-0.61443 0.21632,-0.94016 -0.0298,-0.27443 -0.13878,-0.53981 -0.31049,-0.75594 -0.17171,-0.21614 -0.40556,-0.38233 -0.66615,-0.4734 z"
       id="path4335"
       inkscape:path-effect="#path-effect3462"
       inkscape:original-d="m 212.29375,153.57895 c 0,0 0.78372,-0.49215 0.75762,-1.17022 -0.0261,-0.67808 -0.83858,-1.10262 -0.83858,-1.10262 h -14.16592 c 0,0 -3.08081,0.44409 -4.30833,1.33929 -1.22752,0.89519 -2.91053,1.06222 -2.91053,1.06222 l -2.14981,0.16537 -1.13319,0.62288 0.1447,5.15932 1.25002,0.71429 h 2.42019 c 0.92481,0 3.12208,0.94889 3.91142,1.15957 0.78934,0.2108 2.60611,0.2038 2.60611,0.2038 l 5.98743,-0.17447 c 0,0 1.01153,-0.43453 1.14739,-0.82192 0.13586,-0.38739 -0.12058,-1.64812 -0.12058,-1.64812 0,0 1.00487,-2.32481 1.01347,-1.61082 0.008,0.69272 -0.79091,-1.05193 -0.74561,-1.09007 0,0 0.96022,-2.25785 0.96882,-1.54386 0.008,0.69272 -1.01412,-1.18586 -0.97664,-1.22934 z"
       inkscape:connector-curvature="0"
       sodipodi:nodetypes="czcczcccccszcczcscscc" />
    <rect
       rx="0.50507629"
       ry="0.50507629"
       y="151.88966"
       x="210.58913"
       height="1.1688126"
       width="1.8116598"
       id="rect4337"
       style="opacity:1;fill:#ff00ff;fill-opacity:1;stroke:none;stroke-width:1.39999998;stroke-linecap:round;stroke-linejoin:round;stroke-miterlimit:4;stroke-dasharray:none;stroke-dashoffset:0;stroke-opacity:1" />
    <g
       transform="translate(70.3125)"
       id="g4339">
      <path
         style="opacity:1;fill:none;fill-opacity:1;stroke:#000000;stroke-width:1.39999998;stroke-linecap:round;stroke-linejoin:round;stroke-miterlimit:4;stroke-dasharray:none;stroke-dashoffset:0;stroke-opacity:1"
         d="m 174.79375,153.57895 c 0.22983,-0.0922 0.42991,-0.25701 0.5645,-0.46489 0.13458,-0.20788 0.20303,-0.45789 0.19312,-0.70533 -0.01,-0.24566 -0.0968,-0.48766 -0.24568,-0.68335 -0.14882,-0.19569 -0.3588,-0.34417 -0.5929,-0.41927 h -14.16592 c -1.51294,0.11115 -2.99901,0.57311 -4.30833,1.33929 -0.45214,0.26458 -0.89036,0.55933 -1.37674,0.75394 -0.48637,0.19462 -1.01147,0.2681 -1.53379,0.30828 l -2.14981,0.16537 -1.13319,0.62288 0.1447,5.15932 1.25002,0.71429 h 2.42019 c 0.68886,0 1.38544,0.065 2.02906,0.31057 0.64362,0.24553 1.22738,0.63562 1.88236,0.849 0.83278,0.2713 1.73062,0.22931 2.60611,0.2038 l 5.98743,-0.17447 c 0.48219,-0.0752 0.92109,-0.38955 1.14739,-0.82192 0.13452,-0.25702 0.19571,-0.55192 0.17454,-0.84124 -0.0212,-0.28932 -0.12462,-0.57217 -0.29512,-0.80688 0.32808,-0.10525 0.61668,-0.32916 0.80017,-0.62079 0.18348,-0.29163 0.26041,-0.64872 0.2133,-0.99003 -0.0624,-0.45205 -0.34693,-0.86803 -0.74561,-1.09007 0.30868,-0.10984 0.57834,-0.32617 0.7525,-0.6037 0.17415,-0.27752 0.25167,-0.61443 0.21632,-0.94016 -0.0298,-0.27443 -0.13878,-0.53981 -0.31049,-0.75594 -0.17171,-0.21614 -0.40556,-0.38233 -0.66615,-0.4734 z"
         id="path4341"
         inkscape:path-effect="#path-effect4320"
         inkscape:original-d="m 174.79375,153.57895 c 0,0 0.78372,-0.49215 0.75762,-1.17022 -0.0261,-0.67808 -0.83858,-1.10262 -0.83858,-1.10262 h -14.16592 c 0,0 -3.08081,0.44409 -4.30833,1.33929 -1.22752,0.89519 -2.91053,1.06222 -2.91053,1.06222 l -2.14981,0.16537 -1.13319,0.62288 0.1447,5.15932 1.25002,0.71429 h 2.42019 c 0.92481,0 3.12208,0.94889 3.91142,1.15957 0.78934,0.2108 2.60611,0.2038 2.60611,0.2038 l 5.98743,-0.17447 c 0,0 1.01153,-0.43453 1.14739,-0.82192 0.13586,-0.38739 -0.12058,-1.64812 -0.12058,-1.64812 0,0 1.00487,-2.32481 1.01347,-1.61082 0.008,0.69272 -0.79091,-1.05193 -0.74561,-1.09007 0,0 0.96022,-2.25785 0.96882,-1.54386 0.008,0.69272 -1.01412,-1.18586 -0.97664,-1.22934 z"
         inkscape:connector-curvature="0"
         sodipodi:nodetypes="czcczcccccszcczcscscc" />
      <rect
         rx="0.50507629"
         ry="0.50507629"
         y="151.88966"
         x="173.08913"
         height="1.1688126"
         width="1.8116598"
         id="rect4343"
         style="opacity:1;fill:#0000ff;fill-opacity:1;stroke:none;stroke-width:1.39999998;stroke-linecap:round;stroke-linejoin:round;stroke-miterlimit:4;stroke-dasharray:none;stroke-dashoffset:0;stroke-opacity:1" />
    </g>
    <g
       id="g881"
       transform="rotate(90,72.369227,150.72839)">
      <path
         sodipodi:nodetypes="cczcc"
         inkscape:connector-curvature="0"
         inkscape:original-d="m 67.258168,148.71238 -1.859207,-4.08589 c 0,0 -1.076432,-0.68242 -1.903838,-0.24795 -0.827418,0.43447 -0.604446,1.62888 -0.604446,1.62888 l 5.370716,11.3558"
         inkscape:path-effect="#path-effect3408"
         id="path3406"
         d="m 67.258168,148.71238 -1.859207,-4.08589 c -0.232319,-0.26008 -0.559998,-0.43301 -0.905805,-0.47805 -0.345808,-0.045 -0.706851,0.0382 -0.998033,0.2301 -0.258707,0.17049 -0.461065,0.42502 -0.568857,0.7155 -0.107792,0.29048 -0.120452,0.61539 -0.03559,0.91338 l 5.370716,11.3558"
         style="opacity:1;fill:#8effe2;fill-opacity:1;stroke:#000000;stroke-width:1.65265524;stroke-linecap:round;stroke-linejoin:round;stroke-miterlimit:4;stroke-dasharray:none;stroke-dashoffset:0;stroke-opacity:1"
         transform="matrix(0.80861452,0,0,0.80861452,13.850555,28.847222)" />
      <path
         style="opacity:1;fill:#8effe2;fill-opacity:1;stroke:#000000;stroke-width:1.65265524;stroke-linecap:round;stroke-linejoin:round;stroke-miterlimit:4;stroke-dasharray:none;stroke-dashoffset:0;stroke-opacity:1"
         d="m 70.647297,134.20861 c -0.127021,-0.31652 -0.353961,-0.59208 -0.640255,-0.77744 -0.286293,-0.18535 -0.630604,-0.27962 -0.971387,-0.26597 -0.338321,0.0136 -0.671615,0.13338 -0.94112,0.33835 -0.269504,0.20497 -0.473996,0.49415 -0.577422,0.81656 v 19.50948 c 0.153078,2.08364 0.789299,4.13028 1.844487,5.93349 0.364386,0.6227 0.770314,1.22621 1.038341,1.89606 0.268028,0.66984 0.369227,1.39301 0.424562,2.11236 l 0.22775,2.96074 0.857838,1.56065 7.10548,-0.19929 0.98373,-1.72154 v -3.33312 c 0,-0.9487 0.08958,-1.90805 0.427723,-2.79445 0.338139,-0.8864 0.875384,-1.69036 1.169251,-2.5924 0.37364,-1.14691 0.31581,-2.38344 0.280676,-3.58917 l -0.240282,-8.24597 c -0.103495,-0.66408 -0.53649,-1.26854 -1.131959,-1.5802 -0.353974,-0.18527 -0.760107,-0.26953 -1.158568,-0.24038 -0.398461,0.0292 -0.788005,0.17164 -1.111244,0.40645 -0.144959,-0.45183 -0.45333,-0.8493 -0.854965,-1.102 -0.401636,-0.25269 -0.893417,-0.35865 -1.363476,-0.29376 -0.62257,0.0859 -1.195465,0.4778 -1.501258,1.02686 -0.15127,-0.42512 -0.449209,-0.7965 -0.83142,-1.03635 -0.382211,-0.23985 -0.846203,-0.34661 -1.294804,-0.29792 -0.37795,0.041 -0.743428,0.19113 -1.041096,0.42761 -0.297668,0.23648 -0.526541,0.55855 -0.651966,0.91743 z"
         id="path3394"
         inkscape:path-effect="#path-effect3396"
         inkscape:original-d="m 70.647297,134.20861 c 0,0 -0.677795,-1.07935 -1.611642,-1.04341 -0.93386,0.036 -1.518542,1.15491 -1.518542,1.15491 v 19.50948 c 0,0 0.611606,4.24293 1.844487,5.93349 1.232867,1.69055 1.462903,4.00842 1.462903,4.00842 l 0.22775,2.96074 0.857838,1.56065 7.10548,-0.19929 0.98373,-1.72154 v -3.33312 c 0,-1.27366 1.306823,-4.29976 1.596974,-5.38685 0.290316,-1.08709 0.280676,-3.58917 0.280676,-3.58917 l -0.240282,-8.24597 c 0,0 -0.59844,-1.39309 -1.131959,-1.5802 -0.533518,-0.1871 -2.269812,0.16607 -2.269812,0.16607 0,0 -3.201757,-1.38392 -2.218441,-1.39576 0.954023,-0.011 -1.448731,1.08925 -1.501258,1.02686 0,0 -3.10954,-1.32243 -2.126224,-1.33427 0.954023,-0.011 -1.633181,1.39666 -1.693062,1.34504 z"
         inkscape:connector-curvature="0"
         sodipodi:nodetypes="czcczcccccszcczcscscc"
         transform="matrix(0.80861452,0,0,0.80861452,13.850555,28.847222)" />
      <rect
         transform="rotate(-90)"
         rx="0.5624702"
         ry="0.5624702"
         y="68.835266"
         x="-139.37671"
         height="1.6318666"
         width="2.5293934"
         id="rect3398"
         style="opacity:1;fill:#0000ff;fill-opacity:1;stroke:none;stroke-width:1.55908775;stroke-linecap:round;stroke-linejoin:round;stroke-miterlimit:4;stroke-dasharray:none;stroke-dashoffset:0;stroke-opacity:1" />
    </g>
  </g>
</svg>
